{
    "heartbeat": true,
    "startPromoCodeWith": "Taxi",
    "PORT": 8001,
    "s3BucketCredentials": {
        "bucket": "taximust",
        "accessKeyId": "AKIAI6S2TWESWXQJ3D5Q",
        "secretAccessKey": "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",
        "s3URL": "http://taximust.s3.amazonaws.com",
        "folder": {
            "userProfileImages": "user_profile",
            "userProfileDefaultImage": "user.png"
        }
    },
    "faqsHtmlFiles": {
        "tncSchedules": "/../data/tnc_schedules.html"
    },
    "logFiles": {
        "allLogsFilePath": "/../logs/jugnoo_all.log",
        "curiousLogsFilePath": "/../logs/jugnoo_curious.log",
        "notificationLogsFilePath": "/../notification_logs/jugnoo_notifications.log"
    },
    "directoryToUploadFiles": {
        "ridesData": "/../ridesData/",
        "data": "/../data/"
    },

    "iOSPushSettings": {
        "iosApnCertificateForCustomer": "/home/iridedc/drivenLimousines/drivenLimousines_dev/drivenCustomer.pem",
        "iosApnCertificateForDriver": "/home/iridedc/drivenLimousines/drivenLimousines_dev/drivenDriver.pem",
        "gateway": "gateway.push.apple.com"
    },
    "androidPushSettings": {
        "brandName": "Jugnoo",
        "gcmSender": "AIzaSyA-KWTRcXV74j32dRs6VKaPPxEw4tNzngU"
    },
    "databaseSettings": {
        "host": "localhost",
        "user": "root",
        "password": "TzRAMeHxV82vjc8j",
        "database": "drivenlimousines_dev",
        "mysqlPORT": ""
    },
    "emailCredentials": {
        "service": "smtp.mandrillapp.com",
        "host": "smtp.mandrillapp.com",
        "port": 587,
        "senderEmail": "kunal.sathiya@click-labs.com",
        "multipleSupportEmailIds": "'kunal.sathiya@click-labs.com'", //"'support@jugnoo.in', 'manpreet@click-labs.com', 'anuj@jugnoo.in', 'avinash@jugnoo.in'",
        "senderPassword": "bANPbwUDRH7ZWKBm-Qek5Q",
        "From": "drivenLimousines <support@drivenLimousines.com>",
        "signature": "Best, \ndrivenLimousines Team",
        "particularSignature": "Best, \ndrivenLimousines Dev Team ",
        "devTeamSignature": "Best,\ndrivenLimousines Dev Team"
    },
    "twillioCredentials": {
        "accountSid": "ACd61d3edd5c28e57b16a7d3727b3e61d2",
        "authToken": "2275a70b2c66213c6f411389c82d0ab8",
        "fromNumber": "+14154291568"
    },
    "sendTemplateMessageBy24x7": {
        "APIUrl": "http://smsapi.24x7sms.com/api_1.0/SendSMS.aspx?",
        "email": "chinmay@jugnoo.in",
        "password": 7156,
        "senderId": "JUGNOO",
        "serviceName": "TEMPLATE_BASED"
    },
    "pubnubCredentials": {
        "ssl": true,
        "publishKey": "pub-c-e5019ac7-0d3a-4920-84e4-cab1c954904d",
        "subscribeKey": "sub-c-95eece66-84e0-11e4-b769-02ee2ddab7fe"
    },
    "getOTPUsingNumberURL": "http://54.173.65.120:9000/get_otp_using_number",
    "projectName": "drivenLimousines",
    "braintreeCredentials": {
        "merchantId": "v5fvq2gfprh846m8",
        "publicKey": "fcfpftq5tskh6bf2",
        "privateKey": "fb9f5a5c56cb3cb866192d8a52409dac"
    }
}
