{
  "heartbeat"   : true,
  "startPromoCodeWith" : "Taxi",
  "PORT" : 9000,
  "s3BucketCredentials":{
    "bucket" : "taximust",
    "accessKeyId" : "AKIAI6S2TWESWXQJ3D5Q",
    "secretAccessKey": "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",
    "s3URL" : "http://taximust.s3.amazonaws.com",
    "folder": {
      "userProfileImages" : "user_profile",
      "userProfileDefaultImage" : "user.png"
    }
  },
  "faqsHtmlFiles" : {
    "tncSchedules" : "/../data/tnc_schedules.html"
  },
  "logFiles" : {
    "allLogsFilePath" : "/../logs/jugnoo_all.log",
    "curiousLogsFilePath" : "/../logs/jugnoo_curious.log",
    "notificationLogsFilePath" : "/../notification_logs/jugnoo_notifications.log"
  },
  "directoryToUploadFiles" : {
    "ridesData" : "/../ridesData/",
    "data" : "/../data/"
  },

  "iOSPushSettings" : {
    "iosApnCertificateForCustomer":"/home/storx/taximust/taximust/ckTaxiMust.pem",
    "iosApnCertificateForDriver":"/home/storx/taximust/taximust/ckTaxiMustDriver.pem",
    "gateway" : "gateway.sandbox.push.apple.com"
  },
  "androidPushSettings" : {
    "brandName" : "Jugnoo",
    "gcmSender" : "AIzaSyCVgx-SBVJo696DSyFAKY65ilAV95nGxYg"
  },
  "databaseSettings"   : {
    "host"    : "localhost",
    "user"    : "root",
    "password": "root",
    "database": "taximust",
    "mysqlPORT": 8889
  },
  "emailCredentials":{
    "host": "smtp.mandrillapp.com",
    "port": 587,
    "senderEmail": "taximustgr@gmail.com",
    "multipleSupportEmailIds" : "'taximustgr@gmail.com'",      //"'support@jugnoo.in', 'manpreet@click-labs.com', 'anuj@jugnoo.in', 'avinash@jugnoo.in'",
    "senderPassword": "4L1ckyVW9JC5IrcwOu22MA",
    "From" : "Taximust <taximustgr@gmail.com>",
    "signature" : "Best, \nTaximust Team",
    "particularSignature" : "Best, \nTaximust Dev Team ",
    "devTeamSignature" : "Best,\nTaximust Dev Team"
  },
  "twillioCredentials":{
    "accountSid" : "AC69e3c0328482a9818f7a4a03055cdede",
    "authToken" : "98cbcd6dd9e2eea0d161f1a0024c0e59",
    "fromNumber" : "+1 818-273-6878"
  },
  "sendTemplateMessageBy24x7":{
    "APIUrl" : "http://smsapi.24x7sms.com/api_1.0/SendSMS.aspx?",
    "email" : "",
    "password" : "",
    "senderId" : "",
    "serviceName" : "TEMPLATE_BASED"
  },
  "pubnubCredentials" : {
    "ssl"           : true,
    "publishKey"   : "pub-c-e5019ac7-0d3a-4920-84e4-cab1c954904d",
    "subscribeKey" : "sub-c-95eece66-84e0-11e4-b769-02ee2ddab7fe"
  },
  "getOTPUsingNumberURL" : "http://54.173.65.120:9000/get_otp_using_number",
  "projectName" : "Taximust",
  "braintreeCredentials" : {
    "merchantId" : "2ry2tn79h5b72zqk",
    "publicKey"  : "f9zgb453c574rh98",
    "privateKey" : "6cf1d37bc78e9ecb8d1a6ef4a6496ffa"
  }
}